simulation/qsim/UART_Design.msim.vcd
$comment
	File created using the following command:
		vcd file UART_Design.msim.vcd -direction
$end
$date
	Thu Aug 04 20:15:28 2016
$end
$version
	ModelSim Version 10.1d
$end
$timescale
	1ps
$end
$scope module Group_16_vlg_vec_tst $end
$var reg 1 ! clk $end
$var reg 1 " rx $end
$var wire 1 # decptn $end
$var wire 1 $ digit [3] $end
$var wire 1 % digit [2] $end
$var wire 1 & digit [1] $end
$var wire 1 ' digit [0] $end
$var wire 1 ( segment [6] $end
$var wire 1 ) segment [5] $end
$var wire 1 * segment [4] $end
$var wire 1 + segment [3] $end
$var wire 1 , segment [2] $end
$var wire 1 - segment [1] $end
$var wire 1 . segment [0] $end
$var wire 1 / sampler $end
$scope module i1 $end
$var wire 1 0 gnd $end
$var wire 1 1 vcc $end
$var wire 1 2 unknown $end
$var wire 1 3 clk~dataout $end
$var wire 1 4 rx~dataout $end
$var wire 1 5 inst|CS.state_bit_1~dataout $end
$var wire 1 6 inst|CS.state_bit_0~dataout $end
$var wire 1 7 inst1|decptn~dataout $end
$var wire 1 8 inst6|n_cnt_rtl_0|dffs [3] $end
$var wire 1 9 inst6|n_cnt_rtl_0|dffs [2] $end
$var wire 1 : inst6|n_cnt_rtl_0|dffs [1] $end
$var wire 1 ; inst6|n_cnt_rtl_0|dffs [0] $end
$var wire 1 < inst1|segment7 [6] $end
$var wire 1 = inst1|segment7 [5] $end
$var wire 1 > inst1|segment7 [4] $end
$var wire 1 ? inst1|segment7 [3] $end
$var wire 1 @ inst1|segment7 [2] $end
$var wire 1 A inst1|segment7 [1] $end
$var wire 1 B inst1|segment7 [0] $end
$var wire 1 C inst1|digit [3] $end
$var wire 1 D inst1|digit [2] $end
$var wire 1 E inst1|digit [1] $end
$var wire 1 F inst1|digit [0] $end
$var wire 1 G inst8|buf [7] $end
$var wire 1 H inst8|buf [6] $end
$var wire 1 I inst8|buf [5] $end
$var wire 1 J inst8|buf [4] $end
$var wire 1 K inst8|buf [3] $end
$var wire 1 L inst8|buf [2] $end
$var wire 1 M inst8|buf [1] $end
$var wire 1 N inst8|buf [0] $end
$var wire 1 O inst7|s_cnt [3] $end
$var wire 1 P inst7|s_cnt [2] $end
$var wire 1 Q inst7|s_cnt [1] $end
$var wire 1 R inst7|s_cnt [0] $end
$upscope $end
$upscope $end
$enddefinitions $end
#0
$dumpvars
0!
1"
0#
0'
0&
0%
0$
0.
0-
0,
0+
0*
0)
0(
x/
00
11
x2
03
14
05
06
07
0;
0:
09
08
0B
0A
0@
0?
0>
0=
0<
0F
0E
0D
0C
0N
0M
0L
0K
0J
0I
0H
0G
0R
0Q
0P
0O
$end
#80000
1!
13
0/
1B
1F
1.
1'
#160000
0!
03
1/
#240000
1!
13
0/
#320000
0!
03
1/
#400000
1!
13
0/
#480000
0!
03
1/
#560000
1!
13
0/
#640000
0!
03
1/
#720000
1!
13
0/
#800000
0!
03
1/
#880000
1!
13
0/
#960000
0!
03
1/
#1040000
1!
13
0/
#1120000
0!
03
1/
#1200000
1!
13
0/
#1280000
0!
03
1/
#1360000
1!
13
0/
#1440000
0!
03
1/
#1520000
1!
13
0/
#1600000
0!
03
1/
#1680000
1!
13
0/
#1760000
0!
03
1/
#1840000
1!
13
0/
#1920000
0!
03
1/
#2000000
1!
13
0/
#2080000
0!
03
1/
#2160000
1!
13
0/
#2240000
0!
03
1/
#2320000
1!
13
0/
#2400000
0!
03
1/
#2480000
1!
13
0/
#2560000
0!
03
1/
#2640000
1!
13
0/
#2720000
0!
03
1/
#2800000
1!
13
0/
#2880000
0!
03
1/
#2960000
1!
13
0/
#3040000
0!
03
1/
#3120000
1!
13
0/
#3200000
0!
03
1/
#3280000
1!
13
0/
#3360000
0!
03
1/
#3440000
1!
13
0/
#3520000
0!
03
1/
#3600000
1!
13
0/
#3680000
0!
03
1/
#3760000
1!
13
0/
#3840000
0!
03
1/
#3920000
1!
13
0/
#4000000
0!
03
1/
#4080000
1!
13
0/
#4160000
0!
03
1/
#4240000
1!
13
0/
#4320000
0!
03
1/
#4400000
1!
13
0/
#4480000
0!
03
1/
#4560000
1!
13
0/
#4640000
0!
03
1/
#4720000
1!
13
0/
#4800000
0!
03
1/
#4880000
1!
13
0/
#4960000
0!
03
1/
#5040000
1!
13
0/
#5120000
0!
03
1/
#5200000
1!
13
0/
#5280000
0!
03
1/
#5360000
1!
13
0/
#5440000
0!
03
1/
#5520000
1!
13
0/
#5600000
0!
03
1/
#5680000
1!
13
0/
#5760000
0!
03
1/
#5840000
1!
13
0/
#5920000
0!
03
1/
#6000000
1!
13
0/
#6080000
0!
03
1/
#6160000
1!
13
0/
#6240000
0!
03
1/
#6320000
1!
13
0/
#6400000
0!
03
1/
#6480000
1!
13
0/
#6560000
0!
03
1/
#6640000
1!
13
0/
#6720000
0!
03
1/
#6800000
1!
13
0/
#6880000
0!
03
1/
#6960000
1!
13
0/
#7040000
0!
03
1/
#7120000
1!
13
0/
#7200000
0!
03
1/
#7280000
1!
13
0/
#7360000
0!
03
1/
#7440000
1!
13
0/
#7520000
0!
03
1/
#7600000
1!
13
0/
#7680000
0"
0!
04
03
1/
#7760000
1!
13
0/
16
#7840000
0!
03
1/
#7920000
1!
13
0/
1R
#8000000
0!
03
1/
#8080000
1!
13
0/
0R
1Q
#8160000
0!
03
1/
#8240000
1!
13
0/
1R
#8320000
0!
03
1/
#8400000
1!
13
0/
1P
0R
0Q
#8480000
0!
03
1/
#8560000
1!
13
0/
1R
#8640000
0!
03
1/
#8720000
1!
13
0/
0R
1Q
#8800000
0!
03
1/
#8880000
1!
13
0/
1R
#8960000
0!
03
1/
#9040000
1!
13
0/
06
15
0P
0R
0Q
#9120000
0!
03
1/
#9200000
1!
13
0/
1R
#9280000
0!
03
1/
#9360000
1!
13
0/
0R
1Q
#9440000
0!
03
1/
#9520000
1!
13
0/
1R
#9600000
0!
03
1/
#9680000
1!
13
0/
1P
0R
0Q
#9760000
0!
03
1/
#9840000
1!
13
0/
1R
#9920000
0!
03
1/
#10000000
1!
13
0/
0R
1Q
#10080000
0!
03
1/
#10160000
1!
13
0/
1R
#10240000
1"
0!
14
03
1/
#10320000
1!
13
0/
1O
0P
0R
0Q
#10400000
0!
03
1/
#10480000
1!
13
0/
1R
#10560000
0!
03
1/
#10640000
1!
13
0/
0R
1Q
#10720000
0!
03
1/
#10800000
1!
13
0/
1R
#10880000
0!
03
1/
#10960000
1!
13
0/
1P
0R
0Q
#11040000
0!
03
1/
#11120000
1!
13
0/
1R
#11200000
0!
03
1/
#11280000
1!
13
0/
0R
1Q
#11360000
0!
03
1/
#11440000
1!
13
0/
1R
#11520000
0!
03
1/
#11600000
1!
13
0/
1G
1;
0O
0P
0R
0Q
#11680000
0!
03
1/
#11760000
1!
13
0/
1R
#11840000
0!
03
1/
#11920000
1!
13
0/
0R
1Q
#12000000
0!
03
1/
#12080000
1!
13
0/
1R
#12160000
0!
03
1/
#12240000
1!
13
0/
1P
0R
0Q
#12320000
0!
03
1/
#12400000
1!
13
0/
1R
#12480000
0!
03
1/
#12560000
1!
13
0/
0R
1Q
#12640000
0!
03
1/
#12720000
1!
13
0/
1R
#12800000
0"
0!
04
03
1/
#12880000
1!
13
0/
1O
0P
0R
0Q
#12960000
0!
03
1/
#13040000
1!
13
0/
1R
#13120000
0!
03
1/
#13200000
1!
13
0/
0R
1Q
#13280000
0!
03
1/
#13360000
1!
13
0/
1R
#13440000
0!
03
1/
#13520000
1!
13
0/
1P
0R
0Q
#13600000
0!
03
1/
#13680000
1!
13
0/
1R
#13760000
0!
03
1/
#13840000
1!
13
0/
0R
1Q
#13920000
0!
03
1/
#14000000
1!
13
0/
1R
#14080000
0!
03
1/
#14160000
1!
13
0/
1H
0G
1:
0;
0O
0P
0R
0Q
#14240000
0!
03
1/
#14320000
1!
13
0/
0F
1D
1R
0'
1%
#14400000
0!
03
1/
#14480000
1!
13
0/
0R
1Q
#14560000
0!
03
1/
#14640000
1!
13
0/
1R
#14720000
0!
03
1/
#14800000
1!
13
0/
1P
0R
0Q
#14880000
0!
03
1/
#14960000
1!
13
0/
1R
#15040000
0!
03
1/
#15120000
1!
13
0/
0R
1Q
#15200000
0!
03
1/
#15280000
1!
13
0/
1R
#15360000
1"
0!
14
03
1/
#15440000
1!
13
0/
1O
0P
0R
0Q
#15520000
0!
03
1/
#15600000
1!
13
0/
1R
#15680000
0!
03
1/
#15760000
1!
13
0/
0R
1Q
#15840000
0!
03
1/
#15920000
1!
13
0/
1R
#16000000
0!
03
1/
#16080000
1!
13
0/
1P
0R
0Q
#16160000
0!
03
1/
#16240000
1!
13
0/
1R
#16320000
0!
03
1/
#16400000
1!
13
0/
0R
1Q
#16480000
0!
03
1/
#16560000
1!
13
0/
1R
#16640000
0!
03
1/
#16720000
1!
13
0/
1I
0H
1G
1;
0O
0P
0R
0Q
#16800000
0!
03
1/
#16880000
1!
13
0/
1E
0D
1R
1&
0%
#16960000
0!
03
1/
#17040000
1!
13
0/
0R
1Q
#17120000
0!
03
1/
#17200000
1!
13
0/
1R
#17280000
0!
03
1/
#17360000
1!
13
0/
1P
0R
0Q
#17440000
0!
03
1/
#17520000
1!
13
0/
1R
#17600000
0!
03
1/
#17680000
1!
13
0/
0R
1Q
#17760000
0!
03
1/
#17840000
1!
13
0/
1R
#17920000
0"
0!
04
03
1/
#18000000
1!
13
0/
1O
0P
0R
0Q
#18080000
0!
03
1/
#18160000
1!
13
0/
1R
#18240000
0!
03
1/
#18320000
1!
13
0/
0R
1Q
#18400000
0!
03
1/
#18480000
1!
13
0/
1R
#18560000
0!
03
1/
#18640000
1!
13
0/
1P
0R
0Q
#18720000
0!
03
1/
#18800000
1!
13
0/
1R
#18880000
0!
03
1/
#18960000
1!
13
0/
0R
1Q
#19040000
0!
03
1/
#19120000
1!
13
0/
1R
#19200000
0!
03
1/
#19280000
1!
13
0/
1J
0I
1H
0G
19
0:
0;
0O
0P
0R
0Q
#19360000
0!
03
1/
#19440000
1!
13
0/
0E
1D
17
1R
0&
1%
1#
#19520000
0!
03
1/
#19600000
1!
13
0/
0R
1Q
#19680000
0!
03
1/
#19760000
1!
13
0/
1R
#19840000
0!
03
1/
#19920000
1!
13
0/
1P
0R
0Q
#20000000
0!
03
1/
#20080000
1!
13
0/
1R
#20160000
0!
03
1/
#20240000
1!
13
0/
0R
1Q
#20320000
0!
03
1/
#20400000
1!
13
0/
1R
#20480000
1"
0!
14
03
1/
#20560000
1!
13
0/
1O
0P
0R
0Q
#20640000
0!
03
1/
#20720000
1!
13
0/
1R
#20800000
0!
03
1/
#20880000
1!
13
0/
0R
1Q
#20960000
0!
03
1/
#21040000
1!
13
0/
1R
#21120000
0!
03
1/
#21200000
1!
13
0/
1P
0R
0Q
#21280000
0!
03
1/
#21360000
1!
13
0/
1R
#21440000
0!
03
1/
#21520000
1!
13
0/
0R
1Q
#21600000
0!
03
1/
#21680000
1!
13
0/
1R
#21760000
0!
03
1/
#21840000
1!
13
0/
1K
0J
1I
0H
1G
1;
0O
0P
0R
0Q
#21920000
0!
03
1/
#22000000
1!
13
0/
0B
1E
0D
07
1R
0.
1&
0%
0#
#22080000
0!
03
1/
#22160000
1!
13
0/
0R
1Q
#22240000
0!
03
1/
#22320000
1!
13
0/
1R
#22400000
0!
03
1/
#22480000
1!
13
0/
1P
0R
0Q
#22560000
0!
03
1/
#22640000
1!
13
0/
1R
#22720000
0!
03
1/
#22800000
1!
13
0/
0R
1Q
#22880000
0!
03
1/
#22960000
1!
13
0/
1R
#23040000
0"
0!
04
03
1/
#23120000
1!
13
0/
1O
0P
0R
0Q
#23200000
0!
03
1/
#23280000
1!
13
0/
1R
#23360000
0!
03
1/
#23440000
1!
13
0/
0R
1Q
#23520000
0!
03
1/
#23600000
1!
13
0/
1R
#23680000
0!
03
1/
#23760000
1!
13
0/
1P
0R
0Q
#23840000
0!
03
1/
#23920000
1!
13
0/
1R
#24000000
0!
03
1/
#24080000
1!
13
0/
0R
1Q
#24160000
0!
03
1/
#24240000
1!
13
0/
1R
#24320000
0!
03
1/
#24400000
1!
13
0/
1L
0K
1J
0I
1H
0G
1:
0;
0O
0P
0R
0Q
#24480000
0!
03
1/
#24560000
1!
13
0/
1?
1<
1@
0E
1D
17
1R
1+
1(
1,
0&
1%
1#
#24640000
0!
03
1/
#24720000
1!
13
0/
0R
1Q
#24800000
0!
03
1/
#24880000
1!
13
0/
1R
#24960000
0!
03
1/
#25040000
1!
13
0/
1P
0R
0Q
#25120000
0!
03
1/
#25200000
1!
13
0/
1R
#25280000
0!
03
1/
#25360000
1!
13
0/
0R
1Q
#25440000
0!
03
1/
#25520000
1!
13
0/
1R
#25600000
1"
0!
14
03
1/
#25680000
1!
13
0/
1O
0P
0R
0Q
#25760000
0!
03
1/
#25840000
1!
13
0/
1R
#25920000
0!
03
1/
#26000000
1!
13
0/
0R
1Q
#26080000
0!
03
1/
#26160000
1!
13
0/
1R
#26240000
0!
03
1/
#26320000
1!
13
0/
1P
0R
0Q
#26400000
0!
03
1/
#26480000
1!
13
0/
1R
#26560000
0!
03
1/
#26640000
1!
13
0/
0R
1Q
#26720000
0!
03
1/
#26800000
1!
13
0/
1R
#26880000
0!
03
1/
#26960000
1!
13
0/
1M
0L
1K
0J
1I
0H
1G
1;
0O
0P
0R
0Q
#27040000
0!
03
1/
#27120000
1!
13
0/
1=
1B
1A
1>
1E
0D
07
1R
1)
1.
1-
1*
1&
0%
0#
#27200000
0!
03
1/
#27280000
1!
13
0/
0R
1Q
#27360000
0!
03
1/
#27440000
1!
13
0/
1R
#27520000
0!
03
1/
#27600000
1!
13
0/
1P
0R
0Q
#27680000
0!
03
1/
#27760000
1!
13
0/
1R
#27840000
0!
03
1/
#27920000
1!
13
0/
0R
1Q
#28000000
0!
03
1/
#28080000
1!
13
0/
1R
#28160000
0!
03
1/
#28240000
1!
13
0/
1O
0P
0R
0Q
#28320000
0!
03
1/
#28400000
1!
13
0/
1R
#28480000
0!
03
1/
#28560000
1!
13
0/
0R
1Q
#28640000
0!
03
1/
#28720000
1!
13
0/
1R
#28800000
0!
03
1/
#28880000
1!
13
0/
1P
0R
0Q
#28960000
0!
03
1/
#29040000
1!
13
0/
1R
#29120000
0!
03
1/
#29200000
1!
13
0/
0R
1Q
#29280000
0!
03
1/
#29360000
1!
13
0/
1R
#29440000
0!
03
1/
#29520000
1!
13
0/
1N
0M
1L
0K
1J
0I
1H
16
0O
0P
0R
0Q
#29600000
0!
03
1/
#29680000
1!
13
0/
0?
0B
0A
0>
0<
0E
1D
17
1R
0+
0.
0-
0*
0(
0&
1%
1#
#29760000
0!
03
1/
#29840000
1!
13
0/
0R
1Q
#29920000
0!
03
1/
#30000000
1!
13
0/
1R
#30080000
0!
03
1/
#30160000
1!
13
0/
1P
0R
0Q
#30240000
0!
03
1/
#30320000
1!
13
0/
1R
#30400000
0!
03
1/
#30480000
1!
13
0/
0R
1Q
#30560000
0!
03
1/
#30640000
1!
13
0/
1R
#30720000
0!
03
1/
#30800000
1!
13
0/
1O
0P
0R
0Q
#30880000
0!
03
1/
#30960000
1!
13
0/
1R
#31040000
0!
03
1/
#31120000
1!
13
0/
0R
1Q
#31200000
0!
03
1/
#31280000
1!
13
0/
1R
#31360000
0!
03
1/
#31440000
1!
13
0/
1P
0R
0Q
#31520000
0!
03
1/
#31600000
1!
13
0/
1R
#31680000
0!
03
1/
#31760000
1!
13
0/
0R
1Q
#31840000
0!
03
1/
#31920000
1!
13
0/
1R
#32000000
0!
03
1/
#32080000
1!
13
0/
06
05
#32160000
0!
03
1/
#32240000
1!
13
0/
#32320000
0!
03
1/
#32400000
1!
13
0/
#32480000
0!
03
1/
#32560000
1!
13
0/
#32640000
0!
03
1/
#32720000
1!
13
0/
#32800000
0!
03
1/
#32880000
1!
13
0/
#32960000
0!
03
1/
#33040000
1!
13
0/
#33120000
0!
03
1/
#33200000
1!
13
0/
#33280000
0!
03
1/
#33360000
1!
13
0/
#33440000
0!
03
1/
#33520000
1!
13
0/
#33600000
0!
03
1/
#33680000
1!
13
0/
#33760000
0!
03
1/
#33840000
1!
13
0/
#33920000
0!
03
1/
#34000000
1!
13
0/
#34080000
0!
03
1/
#34160000
1!
13
0/
#34240000
0!
03
1/
#34320000
1!
13
0/
#34400000
0!
03
1/
#34480000
1!
13
0/
#34560000
0!
03
1/
#34640000
1!
13
0/
#34720000
0!
03
1/
#34800000
1!
13
0/
#34880000
0!
03
1/
#34960000
1!
13
0/
#35040000
0!
03
1/
#35120000
1!
13
0/
#35200000
0!
03
1/
#35280000
1!
13
0/
#35360000
0!
03
1/
#35440000
1!
13
0/
#35520000
0!
03
1/
#35600000
1!
13
0/
#35680000
0!
03
1/
#35760000
1!
13
0/
#35840000
0!
03
1/
#35920000
1!
13
0/
#36000000
0!
03
1/
#36080000
1!
13
0/
#36160000
0!
03
1/
#36240000
1!
13
0/
#36320000
0!
03
1/
#36400000
1!
13
0/
#36480000
0!
03
1/
#36560000
1!
13
0/
#36640000
0!
03
1/
#36720000
1!
13
0/
#36800000
0!
03
1/
#36880000
1!
13
0/
#36960000
0!
03
1/
#37040000
1!
13
0/
#37120000
0!
03
1/
#37200000
1!
13
0/
#37280000
0!
03
1/
#37360000
1!
13
0/
#37440000
0!
03
1/
#37520000
1!
13
0/
#37600000
0!
03
1/
#37680000
1!
13
0/
#37760000
0!
03
1/
#37840000
1!
13
0/
#37920000
0!
03
1/
#38000000
1!
13
0/
#38080000
0!
03
1/
#38160000
1!
13
0/
#38240000
0!
03
1/
#38320000
1!
13
0/
#38400000
0!
03
1/
#38480000
1!
13
0/
#38560000
0!
03
1/
#38640000
1!
13
0/
#38720000
0!
03
1/
#38800000
1!
13
0/
#38880000
0!
03
1/
#38960000
1!
13
0/
#39040000
0!
03
1/
#39120000
1!
13
0/
#39200000
0!
03
1/
#39280000
1!
13
0/
#39360000
0!
03
1/
#39440000
1!
13
0/
#39520000
0!
03
1/
#39600000
1!
13
0/
#39680000
0!
03
1/
#39760000
1!
13
0/
#39840000
0!
03
1/
#39920000
1!
13
0/
#40000000
0!
03
1/
#40080000
1!
13
0/
#40160000
0!
03
1/
#40240000
1!
13
0/
#40320000
0!
03
1/
#40400000
1!
13
0/
#40480000
0!
03
1/
#40560000
1!
13
0/
#40640000
0!
03
1/
#40720000
1!
13
0/
#40800000
0!
03
1/
#40880000
1!
13
0/
#40960000
0!
03
1/
#41040000
1!
13
0/
#41120000
0!
03
1/
#41200000
1!
13
0/
#41280000
0!
03
1/
#41360000
1!
13
0/
#41440000
0!
03
1/
#41520000
1!
13
0/
#41600000
0!
03
1/
#41680000
1!
13
0/
#41760000
0!
03
1/
#41840000
1!
13
0/
#41920000
0!
03
1/
#42000000
1!
13
0/
#42080000
0!
03
1/
#42160000
1!
13
0/
#42240000
0!
03
1/
#42320000
1!
13
0/
#42400000
0!
03
1/
#42480000
1!
13
0/
#42560000
0!
03
1/
#42640000
1!
13
0/
#42720000
0!
03
1/
#42800000
1!
13
0/
#42880000
0!
03
1/
#42960000
1!
13
0/
#43040000
0!
03
1/
#43120000
1!
13
0/
#43200000
0!
03
1/
#43280000
1!
13
0/
#43360000
0!
03
1/
#43440000
1!
13
0/
#43520000
0!
03
1/
#43600000
1!
13
0/
#43680000
0!
03
1/
#43760000
1!
13
0/
#43840000
0!
03
1/
#43920000
1!
13
0/
#44000000
0!
03
1/
#44080000
1!
13
0/
#44160000
0!
03
1/
#44240000
1!
13
0/
#44320000
0!
03
1/
#44400000
1!
13
0/
#44480000
0!
03
1/
#44560000
1!
13
0/
#44640000
0!
03
1/
#44720000
1!
13
0/
#44800000
0!
03
1/
#44880000
1!
13
0/
#44960000
0!
03
1/
#45040000
1!
13
0/
#45120000
0!
03
1/
#45200000
1!
13
0/
#45280000
0!
03
1/
#45360000
1!
13
0/
#45440000
0!
03
1/
#45520000
1!
13
0/
#45600000
0!
03
1/
#45680000
1!
13
0/
#45760000
0!
03
1/
#45840000
1!
13
0/
#45920000
0!
03
1/
#46000000
1!
13
0/
#46080000
0!
03
1/
#46160000
1!
13
0/
#46240000
0!
03
1/
#46320000
1!
13
0/
#46400000
0!
03
1/
#46480000
1!
13
0/
#46560000
0!
03
1/
#46640000
1!
13
0/
#46720000
0!
03
1/
#46800000
1!
13
0/
#46880000
0!
03
1/
#46960000
1!
13
0/
#47040000
0!
03
1/
#47120000
1!
13
0/
#47200000
0!
03
1/
#47280000
1!
13
0/
#47360000
0!
03
1/
#47440000
1!
13
0/
#47520000
0!
03
1/
#47600000
1!
13
0/
#47680000
0!
03
1/
#47760000
1!
13
0/
#47840000
0!
03
1/
#47920000
1!
13
0/
#48000000
0!
03
1/
#48080000
1!
13
0/
#48160000
0!
03
1/
#48240000
1!
13
0/
#48320000
0!
03
1/
#48400000
1!
13
0/
#48480000
0!
03
1/
#48560000
1!
13
0/
#48640000
0!
03
1/
#48720000
1!
13
0/
#48800000
0!
03
1/
#48880000
1!
13
0/
#48960000
0!
03
1/
#49040000
1!
13
0/
#49120000
0!
03
1/
#49200000
1!
13
0/
#49280000
0!
03
1/
#49360000
1!
13
0/
#49440000
0!
03
1/
#49520000
1!
13
0/
#49600000
0!
03
1/
#49680000
1!
13
0/
#49760000
0!
03
1/
#49840000
1!
13
0/
#49920000
0!
03
1/
#50000000
1!
13
0/
#50080000
0!
03
1/
#50160000
1!
13
0/
#50240000
0!
03
1/
#50320000
1!
13
0/
#50400000
0!
03
1/
#50480000
1!
13
0/
#50560000
0!
03
1/
#50640000
1!
13
0/
#50720000
0!
03
1/
#50800000
1!
13
0/
#50880000
0!
03
1/
#50960000
1!
13
0/
#51040000
0!
03
1/
#51120000
1!
13
0/
