simulation/qsim/UART_Design.msim.vcd
$comment
	File created using the following command:
		vcd file UART_Design.msim.vcd -direction
$end
$date
	Fri Aug 26 12:57:03 2016
$end
$version
	ModelSim Version 10.1d
$end
$timescale
	1ps
$end
$scope module Group_16_vlg_vec_tst $end
$var reg 1 ! clk $end
$var reg 1 " rx $end
$var wire 1 # decptn $end
$var wire 1 $ digit [3] $end
$var wire 1 % digit [2] $end
$var wire 1 & digit [1] $end
$var wire 1 ' digit [0] $end
$var wire 1 ( segment [6] $end
$var wire 1 ) segment [5] $end
$var wire 1 * segment [4] $end
$var wire 1 + segment [3] $end
$var wire 1 , segment [2] $end
$var wire 1 - segment [1] $end
$var wire 1 . segment [0] $end
$var wire 1 / sampler $end
$scope module i1 $end
$var wire 1 0 gnd $end
$var wire 1 1 vcc $end
$var wire 1 2 unknown $end
$var wire 1 3 clk~dataout $end
$var wire 1 4 rx~dataout $end
$var wire 1 5 inst7|s_cnt[1]~45_pexpout $end
$var wire 1 6 inst7|s_cnt[2]~51_pexpout $end
$var wire 1 7 inst|CS.state_bit_2~dataout $end
$var wire 1 8 inst|CS.state_bit_1~dataout $end
$var wire 1 9 inst|CS.state_bit_0~dataout $end
$var wire 1 : inst10|decptn~dataout $end
$var wire 1 ; inst10|Mux4~12_dataout $end
$var wire 1 < inst10|Mux5~13_pexpout $end
$var wire 1 = inst10|Mux10~11_pexpout $end
$var wire 1 > inst10|Mux7~8_dataout $end
$var wire 1 ? inst10|Mux7~9_dataout $end
$var wire 1 @ inst10|Mux8~12_pexpout $end
$var wire 1 A inst10|Mux9~13_pexpout $end
$var wire 1 B inst6|n_cnt_rtl_0|dffs [3] $end
$var wire 1 C inst6|n_cnt_rtl_0|dffs [2] $end
$var wire 1 D inst6|n_cnt_rtl_0|dffs [1] $end
$var wire 1 E inst6|n_cnt_rtl_0|dffs [0] $end
$var wire 1 F inst10|segment7 [6] $end
$var wire 1 G inst10|segment7 [5] $end
$var wire 1 H inst10|segment7 [4] $end
$var wire 1 I inst10|segment7 [3] $end
$var wire 1 J inst10|segment7 [2] $end
$var wire 1 K inst10|segment7 [1] $end
$var wire 1 L inst10|segment7 [0] $end
$var wire 1 M inst10|digit [3] $end
$var wire 1 N inst10|digit [2] $end
$var wire 1 O inst10|digit [1] $end
$var wire 1 P inst10|digit [0] $end
$var wire 1 Q inst7|s_cnt [3] $end
$var wire 1 R inst7|s_cnt [2] $end
$var wire 1 S inst7|s_cnt [1] $end
$var wire 1 T inst7|s_cnt [0] $end
$var wire 1 U inst1|parallel_out [7] $end
$var wire 1 V inst1|parallel_out [6] $end
$var wire 1 W inst1|parallel_out [5] $end
$var wire 1 X inst1|parallel_out [4] $end
$var wire 1 Y inst1|parallel_out [3] $end
$var wire 1 Z inst1|parallel_out [2] $end
$var wire 1 [ inst1|parallel_out [1] $end
$var wire 1 \ inst1|parallel_out [0] $end
$var wire 1 ] inst8|buf [7] $end
$var wire 1 ^ inst8|buf [6] $end
$var wire 1 _ inst8|buf [5] $end
$var wire 1 ` inst8|buf [4] $end
$var wire 1 a inst8|buf [3] $end
$var wire 1 b inst8|buf [2] $end
$var wire 1 c inst8|buf [1] $end
$var wire 1 d inst8|buf [0] $end
$var wire 1 e inst5|temp [7] $end
$var wire 1 f inst5|temp [6] $end
$var wire 1 g inst5|temp [5] $end
$var wire 1 h inst5|temp [4] $end
$var wire 1 i inst5|temp [3] $end
$var wire 1 j inst5|temp [2] $end
$var wire 1 k inst5|temp [1] $end
$var wire 1 l inst5|temp [0] $end
$var wire 1 m inst5|bcd_out [7] $end
$var wire 1 n inst5|bcd_out [6] $end
$var wire 1 o inst5|bcd_out [5] $end
$var wire 1 p inst5|bcd_out [4] $end
$var wire 1 q inst5|bcd_out [3] $end
$var wire 1 r inst5|bcd_out [2] $end
$var wire 1 s inst5|bcd_out [1] $end
$var wire 1 t inst5|bcd_out [0] $end
$upscope $end
$upscope $end
$enddefinitions $end
#0
$dumpvars
0!
1"
0#
0'
0&
0%
0$
0.
0-
0,
0+
0*
0)
0(
x/
00
11
x2
03
14
05
16
07
08
09
0:
0;
1<
0=
1>
1?
0@
1A
0E
0D
0C
0B
0L
0K
0J
0I
0H
0G
0F
0P
0O
0N
0M
0T
0S
0R
0Q
0\
0[
0Z
0Y
0X
0W
0V
zU
0d
0c
0b
0a
0`
0_
0^
0]
0l
0k
0j
0i
0h
0g
0f
0e
zt
0s
0r
zq
0p
0o
0n
zm
$end
#80000
1!
13
0/
1K
1J
1I
1L
1H
1G
1s
1r
1P
1o
1n
1l
1-
1,
1+
1.
1*
1)
1'
#160000
0!
03
1/
#240000
1!
13
0/
0J
1F
0r
0P
1M
0o
1k
0l
0>
0,
1(
0'
1$
#320000
0!
03
1/
#400000
1!
13
0/
1J
0I
1N
0M
1o
0n
1p
0k
1,
0+
1%
0$
#480000
0!
03
1/
#560000
1!
13
0/
1r
1O
0N
1n
1:
0p
1l
1>
1&
0%
1#
#640000
0!
03
1/
#720000
1!
13
0/
0J
1I
0r
0O
1M
0o
0:
1k
0l
0>
0,
1+
0&
1$
0#
#800000
0!
03
1/
#880000
1!
13
0/
1J
0I
1N
0M
1o
0n
1p
0k
1,
0+
1%
0$
#960000
0!
03
1/
#1040000
1!
13
0/
1r
1O
0N
1n
1:
0p
1l
1>
1&
0%
1#
#1120000
0!
03
1/
#1200000
1!
13
0/
0J
1I
0r
0O
1M
0o
0:
1k
0l
0>
0,
1+
0&
1$
0#
#1280000
0!
03
1/
#1360000
1!
13
0/
1J
0I
1N
0M
1o
0n
1p
0k
1,
0+
1%
0$
#1440000
0!
03
1/
#1520000
1!
13
0/
1r
1O
0N
1n
1:
0p
1l
1>
1&
0%
1#
#1600000
0!
03
1/
#1680000
1!
13
0/
0J
1I
0r
0O
1M
0o
0:
1k
0l
0>
0,
1+
0&
1$
0#
#1760000
0!
03
1/
#1840000
1!
13
0/
1J
0I
1N
0M
1o
0n
1p
0k
1,
0+
1%
0$
#1920000
0!
03
1/
#2000000
1!
13
0/
1r
1O
0N
1n
1:
0p
1l
1>
1&
0%
1#
#2080000
0!
03
1/
#2160000
1!
13
0/
0J
1I
0r
0O
1M
0o
0:
1k
0l
0>
0,
1+
0&
1$
0#
#2240000
0!
03
1/
#2320000
1!
13
0/
1J
0I
1N
0M
1o
0n
1p
0k
1,
0+
1%
0$
#2400000
0!
03
1/
#2480000
1!
13
0/
1r
1O
0N
1n
1:
0p
1l
1>
1&
0%
1#
#2560000
0!
03
1/
#2640000
1!
13
0/
0J
1I
0r
0O
1M
0o
0:
1k
0l
0>
0,
1+
0&
1$
0#
#2720000
0!
03
1/
#2800000
1!
13
0/
1J
0I
1N
0M
1o
0n
1p
0k
1,
0+
1%
0$
#2880000
0!
03
1/
#2960000
1!
13
0/
1r
1O
0N
1n
1:
0p
1l
1>
1&
0%
1#
#3040000
0!
03
1/
#3120000
1!
13
0/
0J
1I
0r
0O
1M
0o
0:
1k
0l
0>
0,
1+
0&
1$
0#
#3200000
0!
03
1/
#3280000
1!
13
0/
1J
0I
1N
0M
1o
0n
1p
0k
1,
0+
1%
0$
#3360000
0!
03
1/
#3440000
1!
13
0/
1r
1O
0N
1n
1:
0p
1l
1>
1&
0%
1#
#3520000
0!
03
1/
#3600000
1!
13
0/
0J
1I
0r
0O
1M
0o
0:
1k
0l
0>
0,
1+
0&
1$
0#
#3680000
0!
03
1/
#3760000
1!
13
0/
1J
0I
1N
0M
1o
0n
1p
0k
1,
0+
1%
0$
#3840000
0!
03
1/
#3920000
1!
13
0/
1r
1O
0N
1n
1:
0p
1l
1>
1&
0%
1#
#4000000
0!
03
1/
#4080000
1!
13
0/
0J
1I
0r
0O
1M
0o
0:
1k
0l
0>
0,
1+
0&
1$
0#
#4160000
0!
03
1/
#4240000
1!
13
0/
1J
0I
1N
0M
1o
0n
1p
0k
1,
0+
1%
0$
#4320000
0!
03
1/
#4400000
1!
13
0/
1r
1O
0N
1n
1:
0p
1l
1>
1&
0%
1#
#4480000
0!
03
1/
#4560000
1!
13
0/
0J
1I
0r
0O
1M
0o
0:
1k
0l
0>
0,
1+
0&
1$
0#
#4640000
0!
03
1/
#4720000
1!
13
0/
1J
0I
1N
0M
1o
0n
1p
0k
1,
0+
1%
0$
#4800000
0!
03
1/
#4880000
1!
13
0/
1r
1O
0N
1n
1:
0p
1l
1>
1&
0%
1#
#4960000
0!
03
1/
#5040000
1!
13
0/
0J
1I
0r
0O
1M
0o
0:
1k
0l
0>
0,
1+
0&
1$
0#
#5120000
0!
03
1/
#5200000
1!
13
0/
1J
0I
1N
0M
1o
0n
1p
0k
1,
0+
1%
0$
#5280000
0!
03
1/
#5360000
1!
13
0/
1r
1O
0N
1n
1:
0p
1l
1>
1&
0%
1#
#5440000
0!
03
1/
#5520000
1!
13
0/
0J
1I
0r
0O
1M
0o
0:
1k
0l
0>
0,
1+
0&
1$
0#
#5600000
0!
03
1/
#5680000
1!
13
0/
1J
0I
1N
0M
1o
0n
1p
0k
1,
0+
1%
0$
#5760000
0!
03
1/
#5840000
1!
13
0/
1r
1O
0N
1n
1:
0p
1l
1>
1&
0%
1#
#5920000
0!
03
1/
#6000000
1!
13
0/
0J
1I
0r
0O
1M
0o
0:
1k
0l
0>
0,
1+
0&
1$
0#
#6080000
0!
03
1/
#6160000
1!
13
0/
1J
0I
1N
0M
1o
0n
1p
0k
1,
0+
1%
0$
#6240000
0!
03
1/
#6320000
1!
13
0/
1r
1O
0N
1n
1:
0p
1l
1>
1&
0%
1#
#6400000
0!
03
1/
#6480000
1!
13
0/
0J
1I
0r
0O
1M
0o
0:
1k
0l
0>
0,
1+
0&
1$
0#
#6560000
0!
03
1/
#6640000
1!
13
0/
1J
0I
1N
0M
1o
0n
1p
0k
1,
0+
1%
0$
#6720000
0!
03
1/
#6800000
1!
13
0/
1r
1O
0N
1n
1:
0p
1l
1>
1&
0%
1#
#6880000
0!
03
1/
#6960000
1!
13
0/
0J
1I
0r
0O
1M
0o
0:
1k
0l
0>
0,
1+
0&
1$
0#
#7040000
0!
03
1/
#7120000
1!
13
0/
1J
0I
1N
0M
1o
0n
1p
0k
1,
0+
1%
0$
#7200000
0!
03
1/
#7280000
1!
13
0/
1r
1O
0N
1n
1:
0p
1l
1>
1&
0%
1#
#7360000
0!
03
1/
#7440000
1!
13
0/
0J
1I
0r
0O
1M
0o
0:
1k
0l
0>
0,
1+
0&
1$
0#
#7520000
0!
03
1/
#7600000
1!
13
0/
1J
0I
1N
0M
1o
0n
1p
0k
1,
0+
1%
0$
#7680000
0"
0!
04
03
1/
#7760000
1!
13
0/
1r
1O
0N
1n
1:
19
0p
1l
1>
1;
0<
0A
1&
0%
1#
#7840000
0!
03
1/
#7920000
1!
13
0/
1I
0F
0r
1P
0O
0o
0:
1T
1k
0l
15
1+
0(
1'
0&
0#
#8000000
0!
03
1/
#8080000
1!
13
0/
1o
0n
0T
1S
1p
0k
06
05
#8160000
0!
03
1/
#8240000
1!
13
0/
1r
1n
1T
0p
1l
#8320000
0!
03
1/
#8400000
1!
13
0/
0r
0o
1R
0T
0S
1k
0l
#8480000
0!
03
1/
#8560000
1!
13
0/
1o
0n
1T
1p
0k
15
#8640000
0!
03
1/
#8720000
1!
13
0/
1r
1n
0T
1S
0p
1l
05
#8800000
0!
03
1/
#8880000
1!
13
0/
0r
0o
1T
1k
0l
16
#8960000
0!
03
1/
#9040000
1!
13
0/
1o
0n
09
18
0R
0T
0S
1p
0k
#9120000
0!
03
1/
#9200000
1!
13
0/
1r
1n
1T
0p
1l
15
#9280000
0!
03
1/
#9360000
1!
13
0/
0r
0o
0T
1S
1k
0l
06
#9440000
0!
03
1/
#9520000
1!
13
0/
1o
0n
1T
1p
0k
05
#9600000
0!
03
1/
#9680000
1!
13
0/
1r
1n
1R
0T
0S
0p
1l
#9760000
0!
03
1/
#9840000
1!
13
0/
0r
0o
1T
1k
0l
15
#9920000
0!
03
1/
#10000000
1!
13
0/
1o
0n
0T
1S
1p
0k
#10080000
0!
03
1/
#10160000
1!
13
0/
1r
1n
1T
0p
1l
05
#10240000
1"
0!
14
03
1/
#10320000
1!
13
0/
0r
0o
1Q
0R
0T
0S
1k
0l
16
#10400000
0!
03
1/
#10480000
1!
13
0/
1o
0n
1T
1p
0k
15
#10560000
0!
03
1/
#10640000
1!
13
0/
1r
1n
0T
1S
0p
1l
06
#10720000
0!
03
1/
#10800000
1!
13
0/
0r
0o
1T
1k
0l
05
#10880000
0!
03
1/
#10960000
1!
13
0/
1o
0n
1R
0T
0S
1p
0k
#11040000
0!
03
1/
#11120000
1!
13
0/
1r
1n
1T
0p
1l
15
#11200000
0!
03
1/
#11280000
1!
13
0/
0r
0o
0T
1S
1k
0l
#11360000
0!
03
1/
#11440000
1!
13
0/
1o
0n
1T
1p
0k
05
#11520000
0!
03
1/
#11600000
1!
13
0/
1r
1n
1]
1E
0Q
0R
0T
0S
0p
1l
16
#11680000
0!
03
1/
#11760000
1!
13
0/
0r
0o
1T
1k
0l
15
#11840000
0!
03
1/
#11920000
1!
13
0/
1o
0n
0T
1S
1p
0k
06
#12000000
0!
03
1/
#12080000
1!
13
0/
1r
1n
1T
0p
1l
05
#12160000
0!
03
1/
#12240000
1!
13
0/
0r
0o
1R
0T
0S
1k
0l
#12320000
0!
03
1/
#12400000
1!
13
0/
1o
0n
1T
1p
0k
15
#12480000
0!
03
1/
#12560000
1!
13
0/
1r
1n
0T
1S
0p
1l
#12640000
0!
03
1/
#12720000
1!
13
0/
0r
0o
1T
1k
0l
05
#12800000
0"
0!
04
03
1/
#12880000
1!
13
0/
1o
0n
1Q
0R
0T
0S
1p
0k
16
#12960000
0!
03
1/
#13040000
1!
13
0/
1r
1n
1T
0p
1l
15
#13120000
0!
03
1/
#13200000
1!
13
0/
0r
0o
0T
1S
1k
0l
06
#13280000
0!
03
1/
#13360000
1!
13
0/
1o
0n
1T
1p
0k
05
#13440000
0!
03
1/
#13520000
1!
13
0/
1r
1n
1R
0T
0S
0p
1l
#13600000
0!
03
1/
#13680000
1!
13
0/
0r
0o
1T
1k
0l
15
#13760000
0!
03
1/
#13840000
1!
13
0/
1o
0n
0T
1S
1p
0k
#13920000
0!
03
1/
#14000000
1!
13
0/
1r
1n
1T
0p
1l
05
#14080000
0!
03
1/
#14160000
1!
13
0/
0r
0o
1^
0]
1D
0E
0Q
0R
0T
0S
1k
0l
16
#14240000
0!
03
1/
#14320000
1!
13
0/
1o
0n
1T
1p
0k
15
#14400000
0!
03
1/
#14480000
1!
13
0/
1r
1n
0T
1S
0p
1l
06
#14560000
0!
03
1/
#14640000
1!
13
0/
0r
0o
1T
1k
0l
05
#14720000
0!
03
1/
#14800000
1!
13
0/
1o
0n
1R
0T
0S
1p
0k
#14880000
0!
03
1/
#14960000
1!
13
0/
1r
1n
1T
0p
1l
15
#15040000
0!
03
1/
#15120000
1!
13
0/
0r
0o
0T
1S
1k
0l
#15200000
0!
03
1/
#15280000
1!
13
0/
1o
0n
1T
1p
0k
05
#15360000
1"
0!
14
03
1/
#15440000
1!
13
0/
1r
1n
1Q
0R
0T
0S
0p
1l
16
#15520000
0!
03
1/
#15600000
1!
13
0/
0r
0o
1T
1k
0l
15
#15680000
0!
03
1/
#15760000
1!
13
0/
1o
0n
0T
1S
1p
0k
06
#15840000
0!
03
1/
#15920000
1!
13
0/
1r
1n
1T
0p
1l
05
#16000000
0!
03
1/
#16080000
1!
13
0/
0r
0o
1R
0T
0S
1k
0l
#16160000
0!
03
1/
#16240000
1!
13
0/
1o
0n
1T
1p
0k
15
#16320000
0!
03
1/
#16400000
1!
13
0/
1r
1n
0T
1S
0p
1l
#16480000
0!
03
1/
#16560000
1!
13
0/
0r
0o
1T
1k
0l
05
#16640000
0!
03
1/
#16720000
1!
13
0/
1o
0n
1_
0^
1]
1E
0Q
0R
0T
0S
1p
0k
16
#16800000
0!
03
1/
#16880000
1!
13
0/
1r
1n
1T
0p
1l
15
#16960000
0!
03
1/
#17040000
1!
13
0/
0r
0o
0T
1S
1k
0l
06
#17120000
0!
03
1/
#17200000
1!
13
0/
1o
0n
1T
1p
0k
05
#17280000
0!
03
1/
#17360000
1!
13
0/
1r
1n
1R
0T
0S
0p
1l
#17440000
0!
03
1/
#17520000
1!
13
0/
0r
0o
1T
1k
0l
15
#17600000
0!
03
1/
#17680000
1!
13
0/
1o
0n
0T
1S
1p
0k
#17760000
0!
03
1/
#17840000
1!
13
0/
1r
1n
1T
0p
1l
05
#17920000
0"
0!
04
03
1/
#18000000
1!
13
0/
0r
0o
1Q
0R
0T
0S
1k
0l
16
#18080000
0!
03
1/
#18160000
1!
13
0/
1o
0n
1T
1p
0k
15
#18240000
0!
03
1/
#18320000
1!
13
0/
1r
1n
0T
1S
0p
1l
06
#18400000
0!
03
1/
#18480000
1!
13
0/
0r
0o
1T
1k
0l
05
#18560000
0!
03
1/
#18640000
1!
13
0/
1o
0n
1R
0T
0S
1p
0k
#18720000
0!
03
1/
#18800000
1!
13
0/
1r
1n
1T
0p
1l
15
#18880000
0!
03
1/
#18960000
1!
13
0/
0r
0o
0T
1S
1k
0l
#19040000
0!
03
1/
#19120000
1!
13
0/
1o
0n
1T
1p
0k
05
#19200000
0!
03
1/
#19280000
1!
13
0/
1r
1n
1`
0_
1^
0]
1C
0D
0E
0Q
0R
0T
0S
0p
1l
16
#19360000
0!
03
1/
#19440000
1!
13
0/
0r
0o
1T
1k
0l
15
#19520000
0!
03
1/
#19600000
1!
13
0/
1o
0n
0T
1S
1p
0k
06
#19680000
0!
03
1/
#19760000
1!
13
0/
1r
1n
1T
0p
1l
05
#19840000
0!
03
1/
#19920000
1!
13
0/
0r
0o
1R
0T
0S
1k
0l
#20000000
0!
03
1/
#20080000
1!
13
0/
1o
0n
1T
1p
0k
15
#20160000
0!
03
1/
#20240000
1!
13
0/
1r
1n
0T
1S
0p
1l
#20320000
0!
03
1/
#20400000
1!
13
0/
0r
0o
1T
1k
0l
05
#20480000
1"
0!
14
03
1/
#20560000
1!
13
0/
1o
0n
1Q
0R
0T
0S
1p
0k
16
#20640000
0!
03
1/
#20720000
1!
13
0/
1r
1n
1T
0p
1l
15
#20800000
0!
03
1/
#20880000
1!
13
0/
0r
0o
0T
1S
1k
0l
06
#20960000
0!
03
1/
#21040000
1!
13
0/
1o
0n
1T
1p
0k
05
#21120000
0!
03
1/
#21200000
1!
13
0/
1r
1n
1R
0T
0S
0p
1l
#21280000
0!
03
1/
#21360000
1!
13
0/
0r
0o
1T
1k
0l
15
#21440000
0!
03
1/
#21520000
1!
13
0/
1o
0n
0T
1S
1p
0k
#21600000
0!
03
1/
#21680000
1!
13
0/
1r
1n
1T
0p
1l
05
#21760000
0!
03
1/
#21840000
1!
13
0/
1a
0r
0o
0`
1_
0^
1]
1E
0Q
0R
0T
0S
1k
0l
16
#21920000
0!
03
1/
#22000000
1!
13
0/
1o
0n
1T
1p
0k
15
#22080000
0!
03
1/
#22160000
1!
13
0/
1r
1n
0T
1S
0p
1l
06
#22240000
0!
03
1/
#22320000
1!
13
0/
0r
0o
1T
1k
0l
05
#22400000
0!
03
1/
#22480000
1!
13
0/
1o
0n
1R
0T
0S
1p
0k
#22560000
0!
03
1/
#22640000
1!
13
0/
1r
1n
1T
0p
1l
15
#22720000
0!
03
1/
#22800000
1!
13
0/
0r
0o
0T
1S
1k
0l
#22880000
0!
03
1/
#22960000
1!
13
0/
1o
0n
1T
1p
0k
05
#23040000
0"
0!
04
03
1/
#23120000
1!
13
0/
1r
1n
1Q
0R
0T
0S
0p
1l
16
#23200000
0!
03
1/
#23280000
1!
13
0/
0r
0o
1T
1k
0l
15
#23360000
0!
03
1/
#23440000
1!
13
0/
1o
0n
0T
1S
1p
0k
06
#23520000
0!
03
1/
#23600000
1!
13
0/
1r
1n
1T
0p
1l
05
#23680000
0!
03
1/
#23760000
1!
13
0/
0r
0o
1R
0T
0S
1k
0l
#23840000
0!
03
1/
#23920000
1!
13
0/
1o
0n
1T
1p
0k
15
#24000000
0!
03
1/
#24080000
1!
13
0/
1r
1n
0T
1S
0p
1l
#24160000
0!
03
1/
#24240000
1!
13
0/
0r
0o
1T
1k
0l
05
#24320000
0!
03
1/
#24400000
1!
13
0/
1b
0a
1o
0n
1`
0_
1^
0]
1D
0E
0Q
0R
0T
0S
1p
0k
16
#24480000
0!
03
1/
#24560000
1!
13
0/
1r
1n
1T
0p
1l
15
#24640000
0!
03
1/
#24720000
1!
13
0/
0r
0o
0T
1S
1k
0l
06
#24800000
0!
03
1/
#24880000
1!
13
0/
1o
0n
1T
1p
0k
05
#24960000
0!
03
1/
#25040000
1!
13
0/
1r
1n
1R
0T
0S
0p
1l
#25120000
0!
03
1/
#25200000
1!
13
0/
0r
0o
1T
1k
0l
15
#25280000
0!
03
1/
#25360000
1!
13
0/
1o
0n
0T
1S
1p
0k
#25440000
0!
03
1/
#25520000
1!
13
0/
1r
1n
1T
0p
1l
05
#25600000
1"
0!
14
03
1/
#25680000
1!
13
0/
0r
0o
1Q
0R
0T
0S
1k
0l
16
#25760000
0!
03
1/
#25840000
1!
13
0/
1o
0n
1T
1p
0k
15
#25920000
0!
03
1/
#26000000
1!
13
0/
1r
1n
0T
1S
0p
1l
06
#26080000
0!
03
1/
#26160000
1!
13
0/
0r
0o
1T
1k
0l
05
#26240000
0!
03
1/
#26320000
1!
13
0/
1o
0n
1R
0T
0S
1p
0k
#26400000
0!
03
1/
#26480000
1!
13
0/
1r
1n
1T
0p
1l
15
#26560000
0!
03
1/
#26640000
1!
13
0/
0r
0o
0T
1S
1k
0l
#26720000
0!
03
1/
#26800000
1!
13
0/
1o
0n
1T
1p
0k
05
#26880000
0!
03
1/
#26960000
1!
13
0/
1c
0b
1a
1r
1n
0`
1_
0^
1]
1E
0Q
0R
0T
0S
0p
1l
16
#27040000
0!
03
1/
#27120000
1!
13
0/
0r
0o
1T
1k
0l
15
#27200000
0!
03
1/
#27280000
1!
13
0/
1o
0n
0T
1S
1p
0k
06
#27360000
0!
03
1/
#27440000
1!
13
0/
1r
1n
1T
0p
1l
05
#27520000
0!
03
1/
#27600000
1!
13
0/
0r
0o
1R
0T
0S
1k
0l
#27680000
0!
03
1/
#27760000
1!
13
0/
1o
0n
1T
1p
0k
15
#27840000
0!
03
1/
#27920000
1!
13
0/
1r
1n
0T
1S
0p
1l
#28000000
0!
03
1/
#28080000
1!
13
0/
0r
0o
1T
1k
0l
05
#28160000
0!
03
1/
#28240000
1!
13
0/
1o
0n
1Q
0R
0T
0S
1p
0k
16
#28320000
0!
03
1/
#28400000
1!
13
0/
1r
1n
1T
0p
1l
15
#28480000
0!
03
1/
#28560000
1!
13
0/
0r
0o
0T
1S
1k
0l
06
#28640000
0!
03
1/
#28720000
1!
13
0/
1o
0n
1T
1p
0k
05
#28800000
0!
03
1/
#28880000
1!
13
0/
1r
1n
1R
0T
0S
0p
1l
#28960000
0!
03
1/
#29040000
1!
13
0/
0r
0o
1T
1k
0l
15
#29120000
0!
03
1/
#29200000
1!
13
0/
1o
0n
0T
1S
1p
0k
#29280000
0!
03
1/
#29360000
1!
13
0/
1r
1n
1T
0p
1l
05
#29440000
0!
03
1/
#29520000
1!
13
0/
1d
0c
1b
0a
0r
0o
1`
0_
1^
19
0Q
0R
0T
0S
1k
0l
16
#29600000
0!
03
1/
#29680000
1!
13
0/
1o
0n
1T
1p
0k
15
#29760000
0!
03
1/
#29840000
1!
13
0/
1r
1n
0T
1S
0p
1l
06
#29920000
0!
03
1/
#30000000
1!
13
0/
0r
0o
1T
1k
0l
05
#30080000
0!
03
1/
#30160000
1!
13
0/
1o
0n
1R
0T
0S
1p
0k
#30240000
0!
03
1/
#30320000
1!
13
0/
1r
1n
1T
0p
1l
15
#30400000
0!
03
1/
#30480000
1!
13
0/
0r
0o
0T
1S
1k
0l
#30560000
0!
03
1/
#30640000
1!
13
0/
1o
0n
1T
1p
0k
16
05
#30720000
0!
03
1/
#30800000
1!
13
0/
1r
1n
1Q
0R
0T
0S
0p
1l
#30880000
0!
03
1/
#30960000
1!
13
0/
0r
0o
1T
1k
0l
15
#31040000
0!
03
1/
#31120000
1!
13
0/
1o
0n
0T
1S
1p
0k
06
#31200000
0!
03
1/
#31280000
1!
13
0/
1r
1n
1T
0p
1l
05
#31360000
0!
03
1/
#31440000
1!
13
0/
0r
0o
1R
0T
0S
1k
0l
#31520000
0!
03
1/
#31600000
1!
13
0/
1o
0n
1T
1p
0k
15
#31680000
0!
03
1/
#31760000
1!
13
0/
1r
1n
0T
1S
0p
1l
#31840000
0!
03
1/
#31920000
1!
13
0/
0r
0o
1T
1k
0l
#32000000
0!
03
1/
#32080000
1!
13
0/
1o
0n
09
17
1p
0k
05
#32160000
0!
03
1/
#32240000
1!
13
0/
1r
1n
0Q
0R
0T
0S
0p
1l
16
#32320000
0!
03
1/
#32400000
1!
13
0/
0r
0o
1T
1k
0l
15
#32480000
0!
03
1/
#32560000
1!
13
0/
1o
0n
0T
1S
1p
0k
06
#32640000
0!
03
1/
#32720000
1!
13
0/
1r
1n
1T
0p
1l
05
#32800000
0!
03
1/
#32880000
1!
13
0/
0r
0o
1R
0T
0S
1k
0l
#32960000
0!
03
1/
#33040000
1!
13
0/
1o
0n
1T
1p
0k
15
#33120000
0!
03
1/
#33200000
1!
13
0/
1r
1n
0T
1S
0p
1l
#33280000
0!
03
1/
#33360000
1!
13
0/
0r
0o
1T
1k
0l
#33440000
0!
03
1/
#33520000
1!
13
0/
1Z
1\
1V
1o
0n
1X
08
07
1p
0k
1A
05
0;
1<
0>
#33600000
0!
03
1/
#33680000
1!
13
0/
0I
1F
1r
0P
1O
1n
1:
0p
1l
1>
0+
1(
0'
1&
1#
#33760000
0!
03
1/
#33840000
1!
13
0/
0J
1I
0r
0O
1M
0o
0:
1k
0l
0>
0,
1+
0&
1$
0#
#33920000
0!
03
1/
#34000000
1!
13
0/
1J
0I
1N
0M
1o
0n
1p
0k
1,
0+
1%
0$
#34080000
0!
03
1/
#34160000
1!
13
0/
1r
1O
0N
1n
1:
0p
1l
1>
1&
0%
1#
#34240000
0!
03
1/
#34320000
1!
13
0/
0J
1I
0r
0O
1M
0o
0:
1k
0l
0>
0,
1+
0&
1$
0#
#34400000
0!
03
1/
#34480000
1!
13
0/
1J
0I
1N
0M
1o
0n
1p
0k
1,
0+
1%
0$
#34560000
0!
03
1/
#34640000
1!
13
0/
1r
1O
0N
1n
1:
0p
1l
1>
1&
0%
1#
#34720000
0!
03
1/
#34800000
1!
13
0/
0J
1I
0r
0O
1M
0o
0:
1k
0l
0>
0,
1+
0&
1$
0#
#34880000
0!
03
1/
#34960000
1!
13
0/
1J
0I
1N
0M
1o
0n
1p
0k
1,
0+
1%
0$
#35040000
0!
03
1/
#35120000
1!
13
0/
1r
1O
0N
1n
1:
0p
1l
1>
1&
0%
1#
#35200000
0!
03
1/
#35280000
1!
13
0/
0J
1I
0r
0O
1M
0o
0:
1k
0l
0>
0,
1+
0&
1$
0#
#35360000
0!
03
1/
#35440000
1!
13
0/
1J
0I
1N
0M
1o
0n
1p
0k
1,
0+
1%
0$
#35520000
0!
03
1/
#35600000
1!
13
0/
1r
1O
0N
1n
1:
0p
1l
1>
1&
0%
1#
#35680000
0!
03
1/
#35760000
1!
13
0/
0J
1I
0r
0O
1M
0o
0:
1k
0l
0>
0,
1+
0&
1$
0#
#35840000
0!
03
1/
#35920000
1!
13
0/
1J
0I
1N
0M
1o
0n
1p
0k
1,
0+
1%
0$
#36000000
0!
03
1/
#36080000
1!
13
0/
1r
1O
0N
1n
1:
0p
1l
1>
1&
0%
1#
#36160000
0!
03
1/
#36240000
1!
13
0/
0J
1I
0r
0O
1M
0o
0:
1k
0l
0>
0,
1+
0&
1$
0#
#36320000
0!
03
1/
#36400000
1!
13
0/
1J
0I
1N
0M
1o
0n
1p
0k
1,
0+
1%
0$
#36480000
0!
03
1/
#36560000
1!
13
0/
1r
1O
0N
1n
1:
0p
1l
1>
1&
0%
1#
#36640000
0!
03
1/
#36720000
1!
13
0/
0J
1I
0r
0O
1M
0o
0:
1k
0l
0>
0,
1+
0&
1$
0#
#36800000
0!
03
1/
#36880000
1!
13
0/
1J
0I
1N
0M
1o
0n
1p
0k
1,
0+
1%
0$
#36960000
0!
03
1/
#37040000
1!
13
0/
1r
1O
0N
1n
1:
0p
1l
1>
1&
0%
1#
#37120000
0!
03
1/
#37200000
1!
13
0/
0J
1I
0r
0O
1M
0o
0:
1k
0l
0>
0,
1+
0&
1$
0#
#37280000
0!
03
1/
#37360000
1!
13
0/
1J
0I
1N
0M
1o
0n
1p
0k
1,
0+
1%
0$
#37440000
0!
03
1/
#37520000
1!
13
0/
1r
1O
0N
1n
1:
0p
1l
1>
1&
0%
1#
#37600000
0!
03
1/
#37680000
1!
13
0/
0J
1I
0r
0O
1M
0o
0:
1k
0l
0>
0,
1+
0&
1$
0#
#37760000
0!
03
1/
#37840000
1!
13
0/
1J
0I
1N
0M
1o
0n
1p
0k
1,
0+
1%
0$
#37920000
0!
03
1/
#38000000
1!
13
0/
1r
1O
0N
1n
1:
0p
1l
1>
1&
0%
1#
#38080000
0!
03
1/
#38160000
1!
13
0/
0J
1I
0r
0O
1M
0o
0:
1k
0l
0>
0,
1+
0&
1$
0#
#38240000
0!
03
1/
#38320000
1!
13
0/
1J
0I
1N
0M
1o
0n
1p
0k
1,
0+
1%
0$
#38400000
0!
03
1/
#38480000
1!
13
0/
1r
1O
0N
1n
1:
0p
1l
1>
1&
0%
1#
#38560000
0!
03
1/
#38640000
1!
13
0/
0J
1I
0r
0O
1M
0o
0:
1k
0l
0>
0,
1+
0&
1$
0#
#38720000
0!
03
1/
